{
    "Genbank Accession": {
        "label": "Genbank",
        "type": "string",
        "visible": true
    },
    "Refseq Accession": {
        "label": "Refseq",
        "type": "string",
        "visible": false
    },
    "Refseq Category": {
        "label": "Category",
        "type": "string",
        "visible": false
    },
    "Assembly Name": {
        "label": "Assembly",
        "type": "string",
        "visible": false
    },
    "Submission Date": {
        "label": "Submission Date",
        "type": "string",
        "visible": true
    },
    "Bioproject": {
        "label": "Bioproject",
        "type": "string",
        "visible": false
    },
    "Organism Name": {
        "label": "Organism",
        "type": "string",
        "visible": false
    },
    "Strain": {
        "label": "Strain",
        "type": "string",
        "visible": false
    },
    "TaxId": {
        "label": "TaxId",
        "type": "string",
        "visible": true
    },
    "Class": {
        "label": "Class",
        "type": "string",
        "visible": false
    },
    "Family": {
        "label": "Family",
        "type": "string",
        "visible": false
    },
    "Genus": {
        "label": "Genus",
        "type": "string",
        "visible": true
    },
    "Order": {
        "label": "Order",
        "type": "string",
        "visible": true
    },
    "Phylum": {
        "label": "Phylum",
        "type": "string",
        "visible": false
    },
    "Species": {
        "label": "Species",
        "type": "string",
        "visible": true
    },
    "Superkingdom": {
        "label": "Superkingdom",
        "type": "string",
        "visible": false
    },
    "Submitter": {
        "label": "Submitter",
        "type": "string",
        "visible": false
    },
    "Assembly Level": {
        "label": "Level",
        "type": "string",
        "visible": false
    },
    "Assembly Type": {
        "label": "Type",
        "type": "string",
        "visible": false
    },
    "Sequencing Technology": {
        "label": "Sequencing Technology",
        "type": "string",
        "visible": false
    },
    "Total length": {
        "label": "Length",
        "type": "num",
        "visible": true
    },
    "Total ungapped length": {
        "label": "Ungapped length",
        "type": "num",
        "visible": false
    },
    "Number of sequences": {
        "label": "Sequences",
        "type": "num",
        "visible": false
    },
    "Number of contigs": {
        "label": "Contigs",
        "type": "num",
        "visible": false
    },
    "Contig L50": {
        "label": "Contig L50",
        "type": "num",
        "visible": false
    },
    "Contig N50": {
        "label": "Contig N50",
        "type": "num",
        "visible": false
    },
    "Number of scaffolds": {
        "label": "Scaffolds",
        "type": "num",
        "visible": true
    },
    "Scaffold L50": {
        "label": "Scaffold L50",
        "type": "num",
        "visible": true
    },
    "Scaffold N50": {
        "label": "Scaffold N50",
        "type": "num",
        "visible": true
    },
    "Annotation Date": {
        "label": "Annotation Date",
        "type": "string",
        "visible": true
    },
    "Total genes": {
        "label": "Total genes",
        "type": "num",
        "visible": true
    },
    "Protein-coding genes": {
        "label": "Protein-coding genes",
        "type": "num",
        "visible": false
    },
    "Pseudogenes": {
        "label": "Pseudogenes",
        "type": "num",
        "visible": false
    },
    "Non-coding genes": {
        "label": "Non-coding genes",
        "type": "num",
        "visible": false
    }
}
